[{
  "relation": ["delegate_permission/common.handle_all_urls"],
  "target": {
    "namespace": "android_app",
    "package_name": "com.example.emirates.applinkpoc",
    "sha256_cert_fingerprints":
    ["D2:10:1B:3A:34:D6:EC:77:1A:03:92:27:0A:37:88:56:7A:08:68:31:21:2E:E2:C9:DB:4E:72:57:23:CB:35:A0"]
  }
}]
